2021/05/06 11:14:57 [INFO] ▶ Start clair-scanner
2021/05/06 11:15:03 [INFO] ▶ Server listening on port 9279
2021/05/06 11:15:03 [INFO] ▶ Analyzing 48ef7127a8196e647638cc927fb89a777bc42702c0ff0947a416dd4ded7820db
2021/05/06 11:15:03 [INFO] ▶ Analyzing 5e36d0577a617130e4ca83bbc84671ce9cafbc739d6ea7c105c316acc1a8781c
2021/05/06 11:15:03 [INFO] ▶ Analyzing f538e839bb396fbf8f82b4df32dab4035a63f17af2fd2b886bb29fcd4a60744a
2021/05/06 11:15:03 [INFO] ▶ Analyzing b18715f793db61032bae7bcf7cbf90b4459b27ad7fa334a52c0460cfac66d537
2021/05/06 11:15:03 [INFO] ▶ Analyzing 7fcd824b3af0826abd00595608b66be784cc565c91d0d74a050dc36fca37ec55
2021/05/06 11:15:03 [INFO] ▶ Analyzing ac497894e9b560fd4bd453e32011b1e2c87e05afae7c49a0265e9bc4b16ea096
2021/05/06 11:15:03 [INFO] ▶ Analyzing deafe210b14eb18fd8481e335034b8f302b725059c6cae8dcb35517bda5014e7
2021/05/06 11:15:04 [INFO] ▶ Image [go-multiserver_nonodejs] contains NO unapproved vulnerabilities
